Data preparation
…
dat$Issn_1 <- paste0(substr(dat$Issn_1, 1, 4), "-", substr(dat$Issn_1, 5, 8))  # Hyphenate the codes to match the target df 
dat$Issn_2 <- ifelse(is.na(dat$Issn_2) == TRUE, NA, paste0(substr(dat$Issn_2, 1, 4), "-", substr(dat$Issn_2,
    5, 8)))  # Hyphenate the codes, but make non-existing second codes NA

df_pres <- dat %>%
    select(Rank, Title, Issn_1, Issn_2, SJR, `SJR Best Quartile`, `H index`, `%Female`)  # Make a set that will be joined with df_works

3.3.4 check
compatability

df_works %>%
    select(issn_l)

#> # A tibble: 6,408 × 1
#>    issn_l   
#>    <chr>    
#>  1 0022-2445
#>  2 <NA>     
#>  3 2297-7775
#>  4 0265-4075
#>  5 2297-7775
#>  6 0197-6664
#>  7 <NA>     
#>  8 1525-8610
#>  9 1664-1078
#> 10 1554-351X
#> # ℹ 6,398 more rows

df_pres %>%
    select(Issn_1, Issn_2)

#> # A tibble: 29,165 × 2
#>    Issn_1    Issn_2   
#>    <chr>     <chr>    
#>  1 1542-4863 0007-9235
#>  2 1935-8245 1935-8237
#>  3 1471-0072 1471-0080
#>  4 0033-5533 1531-4650
#>  5 1474-175X 1474-1768
#>  6 0092-8674 1097-4172
#>  7 1474-1784 1474-1776
#>  8 1944-7981 0002-8282
#>  9 2058-8437 <NA>     
#> 10 1759-4782 1759-4774
#> # ℹ 29,155 more rows
…
