Data preparation
…
#> # A tibble: 3 × 2
#>   Universiteit2.24     n
#>   <chr>            <int>
#> 1 ""                  98
#> 2 "RUG"                1
#> 3 "UvA"                1

3.2 Functions

df_ego %>%
    group_by(Universiteit1.22) %>%
    count(Functie.22)

#> # A tibble: 24 × 3
#> # Groups:   Universiteit1.22 [5]
#>    Universiteit1.22 Functie.22               n
#>    <chr>            <chr>                <int>
#>  1 ""               <NA>                     6
#>  2 "RU"             Associate researcher     1
#>  3 "RU"             External Phd             4
#>  4 "RU"             Guest Researcher         2
#>  5 "RU"             Hoogleraar               6
#>  6 "RU"             Other researcher         1
#>  7 "RU"             PhD Student             15
#>  8 "RU"             Postdoc                  3
#>  9 "RU"             Senior Researcher        1
#> 10 "RU"             Universitair docent     10
#> # ℹ 14 more rows

df_ego %>%
    group_by(Universiteit1.24) %>%
    count(Functie.24)

#> # A tibble: 30 × 3
#> # Groups:   Universiteit1.24 [5]
#>    Universiteit1.24 Functie.24               n
#>    <chr>            <chr>                <int>
#>  1 ""               External Phd             2
#>  2 ""               Guest Researcher         2
#>  3 ""               Onderzoeker              2
#>  4 ""               Other researcher         1
#>  5 ""               PhD Student              8
#>  6 ""               Postdoc                  2
#>  7 ""               Senior Researcher        1
#>  8 "RU"             Associate researcher     1
#>  9 "RU"             Bijzonder hoogleraar     1
#> 10 "RU"             External Phd             4
#> # ℹ 20 more rows
…
3.3.2 Gender distribution
per University and per Function in 22 and 24

!!Important to change function levels to have more meaningful
results!!

df_ego %>%
    group_by(Universiteit1.22, Functie.22) %>%
    summarise(mean_gender = mean(perc_female, na.rm = TRUE))

#> # A tibble: 24 × 3
#> # Groups:   Universiteit1.22 [5]
#>    Universiteit1.22 Functie.22           mean_gender
#>    <chr>            <chr>                      <dbl>
#>  1 ""               <NA>                       0.665
#>  2 "RU"             Associate researcher       0    
#>  3 "RU"             External Phd               0.498
#>  4 "RU"             Guest Researcher           0    
#>  5 "RU"             Hoogleraar                 0.17 
#>  6 "RU"             Other researcher           1    
#>  7 "RU"             PhD Student                0.65 
#>  8 "RU"             Postdoc                    1    
#>  9 "RU"             Senior Researcher          0    
#> 10 "RU"             Universitair docent        0.5  
#> # ℹ 14 more rows

df_ego %>%
    group_by(Universiteit1.24, Functie.24) %>%
    summarise(mean_gender = mean(perc_female, na.rm = TRUE))

#> # A tibble: 30 × 3
#> # Groups:   Universiteit1.24 [5]
#>    Universiteit1.24 Functie.24           mean_gender
#>    <chr>            <chr>                      <dbl>
#>  1 ""               External Phd               0.5  
#>  2 ""               Guest Researcher           0    
#>  3 ""               Onderzoeker                0    
#>  4 ""               Other researcher           1    
#>  5 ""               PhD Student                0.492
#>  6 ""               Postdoc                    1    
#>  7 ""               Senior Researcher          0    
#>  8 "RU"             Associate researcher       0    
#>  9 "RU"             Bijzonder hoogleraar       0    
#> 10 "RU"             External Phd               0.745
#> # ℹ 20 more rows
…
